…
## What is mean total number of steps taken per day?

Calculating the mean of steps per day

```r
print(mean_day <- dataset %>% 
  group_by(date) %>% 
  summarise(mean_steps = mean(steps)))
```

```
## # A tibble: 53 x 2
##    date       mean_steps
##  * <date>          <dbl>
##  1 2012-10-02      0.438
##  2 2012-10-03     39.4  
##  3 2012-10-04     42.1  
##  4 2012-10-05     46.2  
##  5 2012-10-06     53.5  
##  6 2012-10-07     38.2  
##  7 2012-10-09     44.5  
##  8 2012-10-10     34.4  
##  9 2012-10-11     35.8  
## 10 2012-10-12     60.4  
## # … with 43 more rows
```
…
## Are there differences in activity patterns between weekdays and weekends?

Creating a new factor variable with either weekday or weekend

```r
print(new_dataset<- new_dataset %>% 
  mutate(weekday = case_when(
    weekdays(date) %in% c("Lundi", "Mardi", "Mercredi", "Jeudi", "Vendredi") ~ "weekday",
    weekdays(date) %in% c("Samedi", "Dimanche") ~ "weekend"
  )))
```

```
## # A tibble: 17,568 x 5
##     steps date       interval mean_steps weekday
##     <dbl> <date>        <dbl>      <dbl> <chr>  
##  1 1.72   2012-10-01        0     1.72   weekday
##  2 0.340  2012-10-01        5     0.340  weekday
##  3 0.132  2012-10-01       10     0.132  weekday
##  4 0.151  2012-10-01       15     0.151  weekday
##  5 0.0755 2012-10-01       20     0.0755 weekday
##  6 2.09   2012-10-01       25     2.09   weekday
##  7 0.528  2012-10-01       30     0.528  weekday
##  8 0.868  2012-10-01       35     0.868  weekday
##  9 0      2012-10-01       40     0      weekday
## 10 1.47   2012-10-01       45     1.47   weekday
## # … with 17,558 more rows
```
…
